<?xml version="1.0" encoding="UTF-8" standalone="no"?>
<svg
   xmlns:dc="http://purl.org/dc/elements/1.1/"
   xmlns:cc="http://creativecommons.org/ns#"
   xmlns:rdf="http://www.w3.org/1999/02/22-rdf-syntax-ns#"
   xmlns:svg="http://www.w3.org/2000/svg"
   xmlns="http://www.w3.org/2000/svg"
   width="6.0395346mm"
   height="8.7915592mm"
   viewBox="0 0 6.0395346 8.7915592"
   version="1.1"
   id="svg8">
  <defs
     id="defs2" />
  <metadata
     id="metadata5">
    <rdf:RDF>
      <cc:Work
         rdf:about="">
        <dc:format>image/svg+xml</dc:format>
        <dc:type
           rdf:resource="http://purl.org/dc/dcmitype/StillImage" />
        <dc:title></dc:title>
      </cc:Work>
    </rdf:RDF>
  </metadata>
  <g
     id="layer1"
     transform="translate(-93.494369,-189.69379)">
    <g
       id="g173"
       transform="matrix(0.35277779,0,0,0.35277779,-4.3048599,189.22735)">
      <circle
         id="shape0"
         transform="translate(287.50609,10.472164)"
         r="3.3599999"
         cx="3.3599999"
         cy="3.3599999"
         fill="#070707"
         fill-rule="evenodd"
         stroke="#000000"
         stroke-width="0.24"
         stroke-linecap="square"
         stroke-linejoin="bevel" />
      <circle
         id="shape01"
         transform="translate(287.50609,19.40316)"
         r="3.3599999"
         cx="3.3599999"
         cy="3.3599999"
         fill="#070707"
         fill-rule="evenodd"
         stroke="#000000"
         stroke-width="0.24"
         stroke-linecap="square"
         stroke-linejoin="bevel" />
      <circle
         id="shape02"
         transform="translate(277.34615,1.4422059)"
         r="3.3599999"
         cx="3.3599999"
         cy="3.3599999"
         fill="#070707"
         fill-rule="evenodd"
         stroke="#000000"
         stroke-width="0.24"
         stroke-linecap="square"
         stroke-linejoin="bevel" />
    </g>
  </g>
</svg>
