<?xml version="1.0" encoding="UTF-8" standalone="no"?>
<svg
   xmlns:dc="http://purl.org/dc/elements/1.1/"
   xmlns:cc="http://creativecommons.org/ns#"
   xmlns:rdf="http://www.w3.org/1999/02/22-rdf-syntax-ns#"
   xmlns:svg="http://www.w3.org/2000/svg"
   xmlns="http://www.w3.org/2000/svg"
   width="8.5834532mm"
   height="8.3650522mm"
   viewBox="0 0 8.5834532 8.3650522"
   version="1.1"
   id="svg8">
  <defs
     id="defs2" />
  <metadata
     id="metadata5">
    <rdf:RDF>
      <cc:Work
         rdf:about="">
        <dc:format>image/svg+xml</dc:format>
        <dc:type
           rdf:resource="http://purl.org/dc/dcmitype/StillImage" />
        <dc:title></dc:title>
      </cc:Work>
    </rdf:RDF>
  </metadata>
  <g
     id="layer1"
     transform="translate(-90.958273,-190.09724)">
    <g
       id="g27"
       transform="matrix(0.35277779,0,0,0.35277779,89.762726,186.45306)">
      <circle
         id="shape0"
         transform="translate(20.88,10.449946)"
         r="3.3599999"
         cx="3.3599999"
         cy="3.3599999"
         fill="#070707"
         fill-rule="evenodd"
         stroke="#000000"
         stroke-width="0.24"
         stroke-linecap="square"
         stroke-linejoin="bevel" />
      <circle
         id="circle13"
         transform="translate(20.88,19.380942)"
         r="3.3599999"
         cx="3.3599999"
         cy="3.3599999"
         fill="#070707"
         fill-rule="evenodd"
         stroke="#000000"
         stroke-width="0.24"
         stroke-linecap="square"
         stroke-linejoin="bevel" />
      <circle
         id="shape01"
         transform="translate(11.025009,19.380942)"
         r="3.3599999"
         cx="3.3599999"
         cy="3.3599999"
         fill="#070707"
         fill-rule="evenodd"
         stroke="#000000"
         stroke-width="0.24"
         stroke-linecap="square"
         stroke-linejoin="bevel" />
      <circle
         id="shape02"
         transform="translate(3.5089513,27.201904)"
         r="3.3599999"
         cx="3.3599999"
         cy="3.3599999"
         fill="#070707"
         fill-rule="evenodd"
         stroke="#000000"
         stroke-width="0.24"
         stroke-linecap="square"
         stroke-linejoin="bevel" />
    </g>
  </g>
</svg>
